{
    "titre"             :   "Estimation",
    "consigneGenerale"  :   "Placer le plus précisément possible un nombre sur une droite.",
    "consigne"         :   "Place le plus précisément possible ce nombre sur la droite verte.",
    "p1"                :   "Bravo !<br>Tu es tout près de la position exacte.",
    "p2"                :   "Tu peux faire mieux !<br>Clique à nouveau sur la ligne verte.",
    "option1"           :   "Nombre de questions : ",
    "option2"           :   "Tolérance (+ ou -) : ",
    "option3"           :   "Borne inférieure : ",
    "option4"           :   "Borne supérieure : ",
    "option5"           :   "Nombres ou expressions à estimer : "

}