###### Progress log entry 2019-03-18 16:37:35 ######
Reinstalling all deployed packages...
###### Progress log entry 2019-03-18 16:37:39 ######
###### Progress log entry 2019-03-18 16:39:42 ######
###### Progress log entry 2019-03-18 16:43:41 ######
###### Progress log entry 2019-03-18 16:44:22 ######
###### Progress log entry 2019-03-18 17:30:38 ######
###### Progress log entry 2019-03-18 17:31:50 ######
###### Progress log entry 2019-08-07 13:34:34 ######
Reinstalling all deployed packages...
###### Progress log entry 2019-08-07 13:34:38 ######
###### Progress log entry 2019-08-07 14:01:42 ######
ERROR: (com.sun.star.lang.IllegalArgumentException) { { { Message = "Aucune extension de ce type n'est d\X00e9ploy\X00e9e : PicoSvoxOOo", Context = (com.sun.star.uno.XInterface) @55f4b8711f40 } }, ArgumentPosition = (short) -1 }
ERROR: (com.sun.star.lang.IllegalArgumentException) { { { Message = "Aucune extension de ce type n'est d\X00e9ploy\X00e9e : PicoSvoxOOo", Context = (com.sun.star.uno.XInterface) @55f4b8711f40 } }, ArgumentPosition = (short) -1 }
Copie : picosvoxooo_v1_1.oxt
###### Progress log entry 2019-08-07 14:02:00 ######
###### Progress log entry 2019-08-07 14:02:44 ######
###### Progress log entry 2019-08-07 14:04:45 ######
###### Progress log entry 2019-08-07 14:06:24 ######
###### Progress log entry 2019-08-07 17:53:33 ######
###### Progress log entry 2019-08-07 17:55:51 ######
###### Progress log entry 2019-08-07 17:57:52 ######
###### Progress log entry 2019-08-13 12:46:32 ######
Reinstalling all deployed packages...
###### Progress log entry 2019-08-13 12:46:40 ######
###### Progress log entry 2019-08-13 12:48:30 ######
###### Progress log entry 2019-08-13 12:49:40 ######
