{
    "titre"     :   "La grenouille",
    "consigne"  :   "Pour faire sauter la grenouille il faut écrire un nombre et valider.",
    "opt1"      :   "Nombre de questions : ",
    "opt2"      :   "Temps par question (en secondes) : ",
    "opt3"      :   "Pas de la progression :",
    "opt4"      :   "La grenouille commence à : "
}