{
    "titre":"La recette",
    "consigneGenerale":"Calcule la quantité de sucre nécessaire pour réaliser une recette. Utilise les boutons + et - pour afficher cette quantité dans un verre doseur.",
    "recette1":"Recette",
    "recette21":"Pour var1 personnes<br>var2 g de sucre.",
    "question1":"Quelle quantité de sucre pour var3 personnes ?",
    "option1":"Temps maximum pour chaque question (en secondes)",
    "option2":"Favoriser : ",
    "valeur2":["l'utilisation du rapport entre les grandeurs (x2, x3, x4 ou x5)",
               "l'utilisation du rapport entre les grandeurs (1/2, 1/4 ou 1/5)",
               "l'utilisation des propriétés de la linéarité",
               "l'utilisation du passage par l'unité"]
    }