/* XPM */
static char * hide_active_xpm[] = {
"24 26 3 1",
" 	c None",
".	c #1B3455",
"+	c #EEEEEE",
"........................",
"........................",
"........................",
"........................",
"........................",
"........................",
"........................",
"........................",
"........................",
"........................",
"........................",
"........................",
"........++++++++........",
"........++++++++........",
"........................",
"........................",
"........................",
"........................",
"........................",
"........................",
"........................",
"........................",
"........................",
"........................",
"........................",
"........................"};
