<?xml version="1.0" encoding="utf-8"?>
<!-- Generator: Adobe Illustrator 15.1.0, SVG Export Plug-In . SVG Version: 6.00 Build 0)  -->
<!DOCTYPE svg PUBLIC "-//W3C//DTD SVG 1.1//EN" "http://www.w3.org/Graphics/SVG/1.1/DTD/svg11.dtd">
<svg version="1.1" id="Calque_1" xmlns="http://www.w3.org/2000/svg" xmlns:xlink="http://www.w3.org/1999/xlink" x="0px" y="0px"
	 width="37.994px" height="39.1px" viewBox="0 0 37.994 39.1" enable-background="new 0 0 37.994 39.1" xml:space="preserve">
<path stroke="#000000" fill="#000000" d="M9.545,38.598c4.007,0,6.118-3.263,7.222-6.523c1.104-3.264,1.199-6.525,1.199-6.525h2.062
	c0,0,0.385,13.027,8.396,13.052H9.545V38.598z"/>
<path stroke="#000000" fill="#000000" d="M24.562,14.15c-4.559,4.56-4.559,11.396-4.559,11.396l-2.039,0.021c0,0,0-6.979-4.438-11.419"/>
<path stroke="#000000" fill="#000000" d="M23.649,28.785c-4.558-4.56-11.396-4.56-11.396-4.56v-2.039c0,0,6.981,0,11.42-4.438"/>
<path stroke="#000000" fill="#000000" d="M14.511,28.811c4.559-4.56,11.396-4.56,11.396-4.56v-2.039c0,0-6.981,0-11.42-4.438"/>
<circle stroke="#000000" fill="#000000" cx="19.043" cy="8.75" r="8.25"/>
<circle stroke="#000000" fill="#000000" cx="8.75" cy="23.29" r="8.25"/>
<circle stroke="#000000" fill="#000000" cx="29.174" cy="23.267" r="8.25"/>
</svg>
